<?xml version="1.0" encoding="utf-8"?>
<!-- Generator: Adobe Illustrator 21.0.0, SVG Export Plug-In . SVG Version: 6.00 Build 0)  -->
<svg version="1.1" id="Camada_1" xmlns="http://www.w3.org/2000/svg" xmlns:xlink="http://www.w3.org/1999/xlink" x="0px" y="0px"
	 viewBox="0 0 24 24" style="enable-background:new 0 0 24 24;" xml:space="preserve"><title>League of Legends</title>
<g>
	<path d="M10,19.6c3.4,0,6.8,0,10.2,0c-0.3,0.3-0.5,0.7-0.8,1c-0.5,0.6-0.9,1.2-1.4,1.8c-0.1,0.1-0.2,0.2-0.3,0.2c-4.5,0-9,0-13.5,0
		c0,0-0.1,0-0.1,0c0-0.1,0.1-0.2,0.1-0.2c0.5-0.8,0.9-1.6,1.4-2.4c0.1-0.1,0.1-0.2,0.1-0.4c0-5.1,0-10.1,0.1-15.2
		c0-0.2,0-0.3-0.2-0.5c-0.4-0.5-0.8-1-1.2-1.5c0-0.1-0.1-0.1-0.2-0.2c1.9,0,3.8,0,5.8,0C10,7.9,10,13.7,10,19.6z"/>
	<path d="M18.5,18.7c2.7-3.5,3-7.2,0.5-10.8c-1.9-2.7-4.7-3.7-8.1-3.5c0-0.3,0-0.6,0-0.9c0.2,0,0.4-0.1,0.7-0.1
		c1.9-0.1,3.6,0.3,5.2,1.2c1.1,0.6,2,1.4,2.8,2.4c1,1.4,1.7,2.9,1.9,4.6c0.1,1.2,0.1,2.4-0.2,3.6c-0.3,1.2-0.8,2.3-1.5,3.3
		c0,0.1-0.1,0.1-0.2,0.1C19.1,18.8,18.8,18.7,18.5,18.7z"/>
	<path d="M4.9,19.2C1.6,15.5,2,9.9,4.9,6.8c0,0.3,0,0.6,0,0.9c0,0.4-0.1,0.7-0.3,1.1c-0.5,0.8-0.8,1.7-0.9,2.6C3.4,13,3.4,14.5,4,16
		c0.2,0.5,0.5,1.1,0.8,1.6c0,0.1,0.1,0.1,0.1,0.2C4.9,18.2,4.9,18.7,4.9,19.2z"/>
</g>
</svg>
